municipality,NIS,avg(mobiscore),covid_1K
Aalst (Aalst),41002,6.9887824,5.8418646
Aarschot,24001,7.5386944,4.9809065
Aartselaar,11001,7.897357,8.8854685
Affligem,23105,6.1726146,3.779861
Alken,73001,5.7826157,17.827637
Alveringem,38002,4.1159444,3.5664752
Antwerpen,11002,9.035387,4.2400675
Anzegem,34002,5.874146,6.1837454
Ardooie,37020,5.2879486,3.3127208
Arendonk,13001,5.213254,2.1815994
As,71002,5.9864063,7.559132
Asse,23002,6.7439756,4.614271
Assenede,43002,4.52634,5.751964
Avelgem,34003,5.2834177,5.4144516
Baarle-Hertog,13002,4.2075,3.9855072
Balen,13003,6.0767856,2.077991
Beernem,31003,5.9942856,7.422445
Beerse,13004,5.2264442,2.7095776
Beersel,23003,8.011449,3.64342
Begijnendijk,24007,6.6354547,5.438007
Bekkevoort,24008,4.788034,6.3431654
Beringen,71004,6.3588796,5.135287
Berlaar,12002,6.136667,3.6436193
Berlare,42003,5.7065387,3.5432544
Bertem,24009,6.1953807,3.4975517
Bever,23009,4.48,
Beveren (Sint-Niklaas),46003,6.8011265,2.1780226
Bierbeek,24011,6.1814933,1.5868293
Bilzen,73006,5.394735,5.7225933
Blankenberge,31004,8.83902,2.495596
Bocholt,72003,6.173146,4.195271
Boechout,11004,7.4788027,2.6383235
Bonheiden,12005,6.97269,1.9320453
Boom,11005,8.874354,4.549441
Boortmeerbeek,24014,7.022828,3.5155
Borgloon,73009,4.737203,9.994498
Bornem,12007,7.338391,4.2123
Borsbeek,11007,8.538015,8.476138
Boutersem,24016,5.2897882,7.522446
Brakel,45059,5.269074,2.634957
Brasschaat,11008,7.057717,4.769936
Brecht,11009,5.1426454,3.5192018
Bredene,35002,8.419444,3.2053053
Bree,72004,6.993111,8.268573
Brugge,31005,8.256603,5.6623707
Buggenhout,42004,6.614798,6.4062824
Damme,31006,5.0003285,7.0044575
De Haan,35029,7.771706,5.289752
De Panne,38008,6.590361,3.0422335
De Pinte,44012,6.636667,2.3401666
Deerlijk,34009,7.3202085,5.859702
Denderleeuw,41011,6.9027557,4.9660735
Dendermonde,42006,7.275952,4.9596887
Dentergem,37002,5.1575003,3.974284
Dessel,13006,5.2833333,2.1879559
Destelbergen,44013,7.337744,3.5575502
Diepenbeek,71011,6.304209,8.144607
Diest,24020,7.165753,5.1254272
Diksmuide,32003,5.2673783,2.6876905
Dilbeek,23016,7.1171527,4.8078046
Dilsen-Stokkem,72041,5.4699593,7.5764933
Drogenbos,23098,8.77,6.5037794
Duffel,12009,8.046843,4.7452974
Edegem,11013,8.542778,3.1727326
Eeklo,43005,6.9481654,3.4541497
Erpe-Mere,41082,5.9396763,6.612488
Essen,11016,4.786123,3.886963
Evergem,44019,6.1475253,5.5011706
Galmaarden,23023,4.899091,2.4010975
Gavere,44020,5.3075666,3.5142522
Geel,13008,6.825786,3.9402275
Geetbets,24028,4.749778,13.893429
Genk,71016,7.0766773,7.7762847
Gent,44021,8.318001,2.7381692
Geraardsbergen,41018,6.4938316,3.0204253
Gingelom,71017,4.5333557,15.58596
Gistel,35005,5.819451,3.2846117
Glabbeek,24137,4.666,5.312085
Gooik,23024,4.7021604,2.8353326
Grimbergen,23025,7.15579,5.6736455
Grobbendonk,13010,5.5426455,5.02017
Haacht,24033,6.195474,1.6464293
Haaltert,41024,5.5639987,9.230934
Halen,71020,5.2048216,7.5315585
Halle (Halle-Vilvoorde),23027,7.9745,4.7546787
Ham,71069,5.60104,5.322566
Hamme (Dendermonde),42008,6.2647247,4.1021514
Hamont-Achel,72037,6.178889,3.5493076
Harelbeke,34013,7.945764,7.9195967
Hasselt,71022,6.9020195,7.2800655
Hechtel-Eksel,72038,5.2618814,2.576697
Heers,73022,4.4741898,5.276688
Heist-op-den-Berg,12014,6.269252,4.662496
Hemiksem,11018,7.8953333,4.498659
Herent,24038,7.3655863,6.7798176
Herentals,13011,6.7977333,3.6199737
Herenthout,13012,5.189259,2.317625
Herk-de-Stad,71024,5.8041887,6.964229
Herne,23032,4.2388096,1.8004501
Herselt,13013,5.8983006,6.541348
Herstappe,73028,3.9450002,
Herzele,41027,5.2707324,3.827592
Heusden-Zolder,71070,6.502867,4.865314
Heuvelland,33039,4.4050503,2.2758882
Hoegaarden,24041,4.737352,3.4853325
Hoeilaart,23033,7.627861,2.4732797
Hoeselt,73032,4.922,6.3996696
Holsbeek,24043,6.502284,3.892604
Hooglede,36006,5.541251,3.8049464
Hoogstraten,13014,4.214753,2.0135798
Horebeke,45062,4.6916666,9.332024
Houthalen-Helchteren,72039,5.925744,4.958408
Houthulst,32006,4.7327337,5.347594
Hove (Antwerpen),11021,8.154,6.769231
Huldenberg,24045,5.3565655,3.427074
Hulshout,13016,5.2216864,3.2617037
Ichtegem,35006,5.2160635,3.4875445
Ieper,33011,6.0951724,7.432917
Ingelmunster,36007,6.616464,5.638414
Izegem,36008,7.173039,4.925405
Jabbeke,31012,5.94514,3.2455823
Kalmthout,11022,6.0363564,5.2955337
Kampenhout,23038,5.3437862,4.426996
Kapelle-op-den-Bos,23039,7.1520863,14.766812
Kapellen (Antwerpen),11023,7.0546665,5.027933
Kaprijke,43007,5.1087646,5.7506995
Kasterlee,13017,6.184347,2.5194318
Keerbergen,24048,5.6980247,3.9688716
Kinrooi,72018,4.8562036,3.61426
Kluisbergen,45060,4.802639,3.699137
Knokke-Heist,31043,7.692171,4.769667
Koekelare,32010,4.7140937,2.278683
Koksijde,38014,6.7154303,3.4687357
Kontich,11024,7.680476,2.3679848
Kortemark,32011,5.3844857,2.7742548
Kortenaken,24054,4.4694533,10.920635
Kortenberg,24055,6.5970435,2.7121654
Kortessem,73040,4.671875,4.382848
Kortrijk,34022,7.9228654,6.737473
Kraainem,23099,8.871239,5.171158
Kruibeke,46013,7.178158,2.7470887
Kuurne,34023,8.011556,6.0071197
Laakdal,13053,5.481506,4.4717717
Laarne,42010,6.141611,2.506063
Lanaken,73042,5.6002483,8.204017
Landen,24059,5.523624,9.968027
Langemark-Poelkapelle,33040,4.579804,3.9647014
Lebbeke,42011,6.9560843,4.5028725
Lede,41034,6.3810306,3.7431154
Ledegem,36010,5.460074,4.9510055
Lendelede,34025,6.544667,5.2201147
Lennik,23104,5.217222,2.8653295
Leopoldsburg,71034,6.492361,3.4909554
Leuven,24062,9.16221,4.093521
Lichtervelde,36011,5.916741,2.912839
Liedekerke,23044,6.7878704,3.1590824
Lier,12021,7.7412457,2.9247835
Lierde,45063,5.602105,1.662636
Lille,13019,5.0489655,6.231472
Linkebeek,23100,8.592063,4.9239993
Lint,11025,7.718395,2.294104
Linter,24133,4.819618,3.9895446
Lo-Reninge,32030,4.1004763,4.557885
Lochristi,44034,5.688611,3.6017609
Lokeren,46014,6.8789544,6.116575
Lommel,72020,6.0031238,3.1397636
Londerzeel,23045,6.216087,4.480239
Lubbeek,24066,6.173131,7.555464
Lummen,71037,5.8034353,4.6339827
Maarkedal,45064,4.6514664,4.414315
Maaseik,72021,5.255297,5.9248724
Maasmechelen,73107,6.080117,5.400353
Machelen (Halle-Vilvoorde),23047,8.165328,4.008016
Maldegem,43010,4.982575,2.7761421
Malle,11057,5.897465,2.4420025
Mechelen,12025,8.85128,3.5790155
Meerhout,13021,5.7375693,4.053663
Meise,23050,5.9710793,3.2455823
Melle,44040,8.064683,2.811861
Menen,34027,7.0136867,7.12895
Merchtem,23052,5.95164,3.437255
Merelbeke,44043,7.3417463,3.163017
Merksplas,13023,4.740523,5.2325583
Mesen,33016,4.2577777,5.633803
Meulebeke,37007,5.527803,2.854512
Middelkerke,35011,5.779,2.8444352
Moerbeke (Gent),44045,5.165,3.2402408
Mol,13025,6.9125786,1.9008826
Moorslede,36012,5.844741,6.0444446
Mortsel,11029,8.91799,3.86988
Nazareth,44048,5.844395,1.8073845
Niel,11030,8.217143,3.523474
Nieuwerkerken (Hasselt),71045,5.030889,16.266014
Nieuwpoort,38016,6.341693,3.2699423
Nijlen,12026,6.766778,4.6625123
Ninove,41048,6.043691,5.0114365
Olen,13029,6.282518,4.1583366
Oostende,35013,8.468121,3.9024253
Oosterzele,44052,5.682882,1.986755
Oostkamp,31022,6.4800253,6.667229
Oostrozebeke,37010,5.2358336,4.160363
Opwijk,23060,6.008,3.162164
Oud-Heverlee,24086,6.544236,3.0597553
Oud-Turnhout,13031,5.892456,5.270092
Oudenaarde,45035,5.6756024,5.19224
Oudenburg,35014,5.9197984,3.5177486
Overijse,23062,6.9196486,4.0940046
Peer,72030,5.620111,4.2183776
Pepingen,23064,4.858373,5.1350746
Pittem,37011,5.0907407,4.303948
Poperinge,33021,5.057346,4.365039
Putte,12029,5.58096,1.5168539
Ranst,11035,6.1838846,2.3148148
Ravels,13035,4.1900773,9.194484
Retie,13036,4.8385916,2.6325026
Riemst,73066,4.4383483,8.236347
Rijkevorsel,13037,4.6885962,2.9021559
Roeselare,36015,7.5322747,5.0036535
Ronse,45041,5.109986,8.610597
Roosdaal,23097,5.698255,3.0091996
Rotselaar,24094,6.708666,2.0246532
Ruiselede,37012,5.227879,5.0391936
Rumst,11037,7.5657973,4.4400263
Schelle,11038,7.945833,3.404555
Scherpenheuvel-Zichem,24134,6.3244433,4.342351
Schilde,11039,6.624074,5.0885406
Schoten,11040,8.01317,2.897123
Sint-Genesius-Rode,23101,7.9071918,3.643879
Sint-Gillis-Waas,46020,5.7432027,5.730511
Sint-Katelijne-Waver,12035,7.5913224,7.070027
Sint-Laureins,43014,4.256154,1.3268465
Sint-Lievens-Houtem,41063,5.019653,2.6107135
Sint-Martens-Latem,44064,6.5228677,5.8388944
Sint-Niklaas (Sint-Niklaas),46021,8.282709,3.347108
Sint-Pieters-Leeuw,23077,7.1807,3.3890383
Sint-Truiden,71053,6.3598466,15.964523
Spiere-Helkijn,34043,4.4513335,3.9043436
Stabroek,11044,6.3556232,4.8102617
Staden,36019,5.1505,2.1759944
Steenokkerzeel,23081,6.2602777,4.4499383
Stekene,46024,5.374746,3.252914
Temse,46025,7.7971907,6.5829043
Ternat,23086,6.570467,2.7308524
Tervuren,24104,7.6576633,4.682901
Tessenderlo,71057,5.9039946,3.2772794
Tielt (Tielt),37015,6.7494254,4.34104
Tielt-Winge,24135,4.854798,2.884526
Tienen,24107,6.172808,6.776269
Tongeren,73083,4.746271,5.9362497
Torhout,31033,6.5674825,4.8380003
Tremelo,24109,5.481111,2.7490947
Turnhout,13040,6.601717,3.1345155
Veurne,38025,5.550895,3.1924725
Vilvoorde,23088,8.137531,4.516288
Vleteren,33041,4.5111113,1.3546464
Voeren,73109,2.1763072,6.9946938
Vorselaar,13044,5.3912697,4.3251495
Vosselaar,13046,6.273016,3.5755787
Waasmunster,42023,6.1214604,5.277289
Wachtebeke,44073,5.3543983,11.967572
Waregem,34040,7.486602,8.832907
Wellen,73098,4.853125,7.3250136
Wemmel,23102,7.682582,2.183009
Wervik,33029,6.4319577,6.5007725
Westerlo,13049,5.6431866,3.313241
Wetteren,42025,7.7674932,5.1520433
Wevelgem,34041,7.328442,4.935363
Wezembeek-Oppem,23103,8.645278,3.5769393
Wichelen,42026,6.917255,8.310487
Wielsbeke,37017,6.288987,3.7340524
Wijnegem,11050,8.264444,1.8337408
Willebroek,12040,7.9201665,3.7790039
Wingene,37018,4.9405556,8.693823
Wommelgem,11052,7.864857,3.342402
Wortegem-Petegem,45061,4.835229,4.689698
Wuustwezel,11053,4.6162224,3.4811635
Zandhoven,11054,5.304674,6.525912
Zaventem,23094,8.392639,4.073557
Zedelgem,31040,6.889841,4.075551
Zele,42028,7.197273,5.1597633
Zelzate,43018,6.4993377,1.7893263
Zemst,23096,7.4707317,3.1252675
Zoersel,11055,5.8824787,3.0532265
Zonhoven,71066,6.630484,8.428686
Zonnebeke,33037,4.8492203,3.4452367
Zottegem,41081,5.9814644,2.6333609
Zoutleeuw,24130,5.4612823,8.254717
Zuienkerke,31042,5.219,1.8375597
Zulte,44081,6.1567726,3.2442749
Zutendaal,71067,5.4982405,7.4084234
Zwalm,45065,4.9413795,1.8409426
Zwevegem,34042,6.030523,4.9886436
Zwijndrecht,11056,8.043333,3.9882452
